^P:\ZZ2\ORDO\TP2_JOBSHOP\TP2_JOBSHOP\SOURCE.CPP|P:\ZZ2\ORDO\TP2_JOBSHOP\TP2_JOBSHOP\TP2_JOBSHOP.CPP
P:\ZZ2\ORDO\TP2_JOBSHOP\TP2_JOBSHOP\X64\DEBUG\VC142.PDB
P:\ZZ2\ORDO\TP2_JOBSHOP\TP2_JOBSHOP\X64\DEBUG\TP2_JOBSHOP.OBJ
P:\ZZ2\ORDO\TP2_JOBSHOP\TP2_JOBSHOP\X64\DEBUG\SOURCE.OBJ
^P:\ZZ2\ORDO\TP2_JOBSHOP\TP2_JOBSHOP\SOURCE.CPP
P:\ZZ2\ORDO\TP2_JOBSHOP\TP2_JOBSHOP\X64\DEBUG\VC142.PDB
^P:\ZZ2\ORDO\TP2_JOBSHOP\TP2_JOBSHOP\TP2_JOBSHOP.CPP
P:\ZZ2\ORDO\TP2_JOBSHOP\TP2_JOBSHOP\X64\DEBUG\VC142.PDB
