^C:\USERS\BENJAM\DESKTOP\TP1_ORDONNANCEMENT\TP1_ORDONNANCEMENT\X64\DEBUG\SOURCE.OBJ|C:\USERS\BENJAM\DESKTOP\TP1_ORDONNANCEMENT\TP1_ORDONNANCEMENT\X64\DEBUG\TP1_ORDONNANCEMENT.OBJ
/OUT:"C:\USERS\BENJAM\DESKTOP\TP1_ORDONNANCEMENT\X64\DEBUG\TP1_ORDONNANCEMENT.EXE" /INCREMENTAL /ILK:"X64\DEBUG\TP1_ORDONNANCEMENT.ILK" /NOLOGO KERNEL32.LIB USER32.LIB GDI32.LIB WINSPOOL.LIB COMDLG32.LIB ADVAPI32.LIB SHELL32.LIB OLE32.LIB OLEAUT32.LIB UUID.LIB ODBC32.LIB ODBCCP32.LIB /MANIFEST /MANIFESTUAC:"level='asInvoker' uiAccess='false'" /manifest:embed /DEBUG /PDB:"C:\USERS\BENJAM\DESKTOP\TP1_ORDONNANCEMENT\X64\DEBUG\TP1_ORDONNANCEMENT.PDB" /SUBSYSTEM:CONSOLE /TLBID:1 /DYNAMICBASE /NXCOMPAT /IMPLIB:"C:\USERS\BENJAM\DESKTOP\TP1_ORDONNANCEMENT\X64\DEBUG\TP1_ORDONNANCEMENT.LIB" /MACHINE:X64 X64\DEBUG\SOURCE.OBJ
X64\DEBUG\TP1_ORDONNANCEMENT.OBJ
^C:\USERS\CYLOURENCO\DESKTOP\TP1_ORDONNANCEMENT\TP1_ORDONNANCEMENT\X64\DEBUG\SOURCE.OBJ|C:\USERS\CYLOURENCO\DESKTOP\TP1_ORDONNANCEMENT\TP1_ORDONNANCEMENT\X64\DEBUG\TP1_ORDONNANCEMENT.OBJ
/OUT:"C:\USERS\CYLOURENCO\DESKTOP\TP1_ORDONNANCEMENT\X64\DEBUG\TP1_ORDONNANCEMENT.EXE" /INCREMENTAL /ILK:"X64\DEBUG\TP1_ORDONNANCEMENT.ILK" /NOLOGO KERNEL32.LIB USER32.LIB GDI32.LIB WINSPOOL.LIB COMDLG32.LIB ADVAPI32.LIB SHELL32.LIB OLE32.LIB OLEAUT32.LIB UUID.LIB ODBC32.LIB ODBCCP32.LIB /MANIFEST /MANIFESTUAC:"level='asInvoker' uiAccess='false'" /manifest:embed /DEBUG /PDB:"C:\USERS\CYLOURENCO\DESKTOP\TP1_ORDONNANCEMENT\X64\DEBUG\TP1_ORDONNANCEMENT.PDB" /SUBSYSTEM:CONSOLE /TLBID:1 /DYNAMICBASE /NXCOMPAT /IMPLIB:"C:\USERS\CYLOURENCO\DESKTOP\TP1_ORDONNANCEMENT\X64\DEBUG\TP1_ORDONNANCEMENT.LIB" /MACHINE:X64 X64\DEBUG\SOURCE.OBJ
X64\DEBUG\TP1_ORDONNANCEMENT.OBJ
