^C:\USERS\CYLOURENCO\DESKTOP\TP1_ORDONNANCEMENT\TP1_ORDONNANCEMENT\X64\DEBUG\SOURCE.OBJ|C:\USERS\CYLOURENCO\DESKTOP\TP1_ORDONNANCEMENT\TP1_ORDONNANCEMENT\X64\DEBUG\TP1_ORDONNANCEMENT.OBJ
C:\USERS\CYLOURENCO\DESKTOP\TP1_ORDONNANCEMENT\X64\DEBUG\TP1_ORDONNANCEMENT.EXE
C:\USERS\CYLOURENCO\DESKTOP\TP1_ORDONNANCEMENT\TP1_ORDONNANCEMENT\X64\DEBUG\TP1_ORDONNANCEMENT.ILK
C:\USERS\CYLOURENCO\DESKTOP\TP1_ORDONNANCEMENT\X64\DEBUG\TP1_ORDONNANCEMENT.PDB
