^C:\USERS\LOUANE\DOCUMENTS\ZZ2\ORDO\ORDO\TP3_VRP\TP3_VRP\SOURCE.CPP|C:\USERS\LOUANE\DOCUMENTS\ZZ2\ORDO\ORDO\TP3_VRP\TP3_VRP\TP3_VRP.CPP
C:\USERS\LOUANE\DOCUMENTS\ZZ2\ORDO\ORDO\TP3_VRP\TP3_VRP\DEBUG\VC142.PDB
C:\USERS\LOUANE\DOCUMENTS\ZZ2\ORDO\ORDO\TP3_VRP\TP3_VRP\DEBUG\VC142.IDB
C:\USERS\LOUANE\DOCUMENTS\ZZ2\ORDO\ORDO\TP3_VRP\TP3_VRP\DEBUG\TP3_VRP.OBJ
C:\USERS\LOUANE\DOCUMENTS\ZZ2\ORDO\ORDO\TP3_VRP\TP3_VRP\DEBUG\SOURCE.OBJ
^C:\USERS\LOUANE\DOCUMENTS\ZZ2\ORDO\ORDO\TP3_VRP\TP3_VRP\SOURCE.CPP
C:\USERS\LOUANE\DOCUMENTS\ZZ2\ORDO\ORDO\TP3_VRP\TP3_VRP\DEBUG\VC142.PDB
^C:\USERS\LOUANE\DOCUMENTS\ZZ2\ORDO\ORDO\TP3_VRP\TP3_VRP\TP3_VRP.CPP
C:\USERS\LOUANE\DOCUMENTS\ZZ2\ORDO\ORDO\TP3_VRP\TP3_VRP\DEBUG\VC142.PDB
